第1章 Rによるデータ分析の基礎 – ラグランジェ・ファイナンス
…
normalized_data_dir <- normalizePath(data_dir, winslash = "/", mustWork = TRUE)
normalized_csv_paths <- normalizePath(csv_paths, winslash = "/", mustWork = FALSE)

csv_catalog <- tibble(
  file_name = basename(csv_paths),
  relative_path = substring(
    normalized_csv_paths,
    first = nchar(normalized_data_dir) + 2
  )
) |>
  arrange(relative_path)

csv_catalog

# A tibble: 27 × 2
   file_name                    relative_path               
   <chr>                        <chr>                       
 1 ch03_daily_stock_return.csv  ch03_daily_stock_return.csv 
 2 ch03_output.csv              ch03_output.csv             
 3 ch04_financial_data.csv      ch04_financial_data.csv     
 4 ch04_output.csv              ch04_output.csv             
 5 ch05_accounting_standard.csv ch05_accounting_standard.csv
 6 ch05_earnings_management.csv ch05_earnings_management.csv
 7 ch05_messy_stock_return.csv  ch05_messy_stock_return.csv 
 8 ch05_output1.csv             ch05_output1.csv            
 9 ch05_output2.csv             ch05_output2.csv            
10 ch05_stock_data.csv          ch05_stock_data.csv         
# ℹ 17 more rows
…
if (length(missing_columns) > 0) {
  stop(
    "必要な列が不足しています: ",
    paste(missing_columns, collapse = ", ")
  )
}

daily_stock_return <- daily_stock_return |>
  mutate(date = as.Date(date))

daily_stock_return

# A tibble: 21 × 3
   date          firm1    firm2
   <date>        <dbl>    <dbl>
 1 2020-04-01 -0.0395   0.0770 
 2 2020-04-02  0.00598 -0.00725
 3 2020-04-03  0.0558  -0.0173 
 4 2020-04-06  0.0419   0.00217
 5 2020-04-07 -0.0202   0.0755 
 6 2020-04-08 -0.00229 -0.0962 
 7 2020-04-09  0.0817   0.0788 
 8 2020-04-10  0.0346   0.0215 
 9 2020-04-13  0.0326   0.135  
10 2020-04-14 -0.0377   0.0380 
# ℹ 11 more rows
…
[1] 3

names(daily_stock_return)

[1] "date"  "firm1" "firm2"

1.9 dplyrによるデータ操作

列を選ぶ

daily_stock_return |>
  select(date, firm1)

# A tibble: 21 × 2
   date          firm1
   <date>        <dbl>
 1 2020-04-01 -0.0395 
 2 2020-04-02  0.00598
 3 2020-04-03  0.0558 
 4 2020-04-06  0.0419 
 5 2020-04-07 -0.0202 
 6 2020-04-08 -0.00229
 7 2020-04-09  0.0817 
 8 2020-04-10  0.0346 
 9 2020-04-13  0.0326 
10 2020-04-14 -0.0377 
# ℹ 11 more rows
…
return_data <- daily_stock_return |>
  mutate(
    spread = firm1 - firm2,
    firm1_gross_return = 1 + firm1,
    firm2_gross_return = 1 + firm2,
    market_direction = case_when(
      firm1 > 0 & firm2 > 0 ~ "both_positive",
      firm1 < 0 & firm2 < 0 ~ "both_negative",
      TRUE ~ "mixed"
    )
  )

return_data

# A tibble: 21 × 7
   date          firm1    firm2   spread firm1_gross_return firm2_gross_return
   <date>        <dbl>    <dbl>    <dbl>              <dbl>              <dbl>
 1 2020-04-01 -0.0395   0.0770  -0.116                0.961              1.08 
 2 2020-04-02  0.00598 -0.00725  0.0132               1.01               0.993
 3 2020-04-03  0.0558  -0.0173   0.0731               1.06               0.983
 4 2020-04-06  0.0419   0.00217  0.0398               1.04               1.00 
 5 2020-04-07 -0.0202   0.0755  -0.0957               0.980              1.08 
 6 2020-04-08 -0.00229 -0.0962   0.0939               0.998              0.904
 7 2020-04-09  0.0817   0.0788   0.00286              1.08               1.08 
 8 2020-04-10  0.0346   0.0215   0.0130               1.03               1.02 
 9 2020-04-13  0.0326   0.135   -0.103                1.03               1.14 
10 2020-04-14 -0.0377   0.0380  -0.0756               0.962              1.04 
# ℹ 11 more rows
# ℹ 1 more variable: market_direction <chr>

並べ替える

return_data |>
  arrange(firm1)

# A tibble: 21 × 7
   date          firm1     firm2   spread firm1_gross_return firm2_gross_return
   <date>        <dbl>     <dbl>    <dbl>              <dbl>              <dbl>
 1 2020-04-28 -0.0721  -0.0469   -0.0252               0.928              0.953
 2 2020-04-24 -0.0414  -0.00411  -0.0373               0.959              0.996
 3 2020-04-01 -0.0395   0.0770   -0.116                0.961              1.08 
 4 2020-04-14 -0.0377   0.0380   -0.0756               0.962              1.04 
 5 2020-04-23 -0.0289  -0.0355    0.00661              0.971              0.965
 6 2020-04-16 -0.0270  -0.0535    0.0265               0.973              0.947
 7 2020-04-07 -0.0202   0.0755   -0.0957               0.980              1.08 
 8 2020-04-21 -0.0146  -0.000306 -0.0143               0.985              1.000
 9 2020-04-08 -0.00229 -0.0962    0.0939               0.998              0.904
10 2020-04-27  0.00454 -0.0196    0.0242               1.00               0.980
# ℹ 11 more rows
# ℹ 1 more variable: market_direction <chr>

return_data |>
  arrange(desc(firm1))

# A tibble: 21 × 7
   date         firm1    firm2   spread firm1_gross_return firm2_gross_return
   <date>       <dbl>    <dbl>    <dbl>              <dbl>              <dbl>
 1 2020-04-17 0.171    0.0395   0.132                 1.17              1.04 
 2 2020-04-09 0.0817   0.0788   0.00286               1.08              1.08 
 3 2020-04-03 0.0558  -0.0173   0.0731                1.06              0.983
 4 2020-04-22 0.0515  -0.0538   0.105                 1.05              0.946
 5 2020-04-20 0.0463   0.0373   0.00905               1.05              1.04 
 6 2020-04-30 0.0448  -0.0134   0.0582                1.04              0.987
 7 2020-04-06 0.0419   0.00217  0.0398                1.04              1.00 
 8 2020-04-10 0.0346   0.0215   0.0130                1.03              1.02 
 9 2020-04-13 0.0326   0.135   -0.103                 1.03              1.14 
10 2020-04-15 0.00988  0.0114  -0.00155               1.01              1.01 
# ℹ 11 more rows
# ℹ 1 more variable: market_direction <chr>
…
wide形式からlong形式へ変換する

元のデータでは、firm1とfirm2が別々の列に格納されている。pivot_longer()を使うと、企業名とリターンをそれぞれ一つの列へまとめられる。

return_long <- daily_stock_return |>
  pivot_longer(
    cols = c(firm1, firm2),
    names_to = "firm",
    values_to = "return"
  )

return_long

# A tibble: 42 × 3
   date       firm    return
   <date>     <chr>    <dbl>
 1 2020-04-01 firm1 -0.0395 
 2 2020-04-01 firm2  0.0770 
 3 2020-04-02 firm1  0.00598
 4 2020-04-02 firm2 -0.00725
 5 2020-04-03 firm1  0.0558 
 6 2020-04-03 firm2 -0.0173 
 7 2020-04-06 firm1  0.0419 
 8 2020-04-06 firm2  0.00217
 9 2020-04-07 firm1 -0.0202 
10 2020-04-07 firm2  0.0755 
# ℹ 32 more rows

long形式からwide形式へ戻す

return_long |>
  pivot_wider(
    names_from = firm,
    values_from = return
  )

# A tibble: 21 × 3
   date          firm1    firm2
   <date>        <dbl>    <dbl>
 1 2020-04-01 -0.0395   0.0770 
 2 2020-04-02  0.00598 -0.00725
 3 2020-04-03  0.0558  -0.0173 
 4 2020-04-06  0.0419   0.00217
 5 2020-04-07 -0.0202   0.0755 
 6 2020-04-08 -0.00229 -0.0962 
 7 2020-04-09  0.0817   0.0788 
 8 2020-04-10  0.0346   0.0215 
 9 2020-04-13  0.0326   0.135  
10 2020-04-14 -0.0377   0.0380 
# ℹ 11 more rows
…
distribution_specs <- tribble(
  ~distribution, ~generator,
  "uniform",      \(n) runif(n, min = -1, max = 1),
  "normal",       \(n) rnorm(n, mean = 0, sd = 1),
  "poisson",      \(n) rpois(n, lambda = 3)
)

simulated_distributions <- distribution_specs |>
  mutate(values = map(generator, \(generator) generator(1000))) |>
  select(-generator) |>
  unnest_longer(values)

simulated_distributions

# A tibble: 3,000 × 2
   distribution  values
   <chr>          <dbl>
 1 uniform      -0.773 
 2 uniform       0.245 
 3 uniform       0.219 
 4 uniform       0.247 
 5 uniform       0.722 
 6 uniform       0.281 
 7 uniform      -0.981 
 8 uniform      -0.535 
 9 uniform       0.332 
10 uniform       0.0285
# ℹ 2,990 more rows
…
analysis_data

# A tibble: 42 × 5
   date       firm    return gross_return direction
   <date>     <chr>    <dbl>        <dbl> <chr>    
 1 2020-04-01 firm1 -0.0395         0.961 negative 
 2 2020-04-02 firm1  0.00598        1.01  positive 
 3 2020-04-03 firm1  0.0558         1.06  positive 
 4 2020-04-06 firm1  0.0419         1.04  positive 
 5 2020-04-07 firm1 -0.0202         0.980 negative 
 6 2020-04-08 firm1 -0.00229        0.998 negative 
 7 2020-04-09 firm1  0.0817         1.08  positive 
 8 2020-04-10 firm1  0.0346         1.03  positive 
 9 2020-04-13 firm1  0.0326         1.03  positive 
10 2020-04-14 firm1 -0.0377         0.962 negative 
# ℹ 32 more rows
…
累積リターンを計算する

cumulative_return_data <- analysis_data |>
  group_by(firm) |>
  mutate(
    cumulative_gross_return = cumprod(gross_return),
    cumulative_return = cumulative_gross_return - 1
  ) |>
  ungroup()

cumulative_return_data

# A tibble: 42 × 7
   date       firm    return gross_return direction cumulative_gross_return
   <date>     <chr>    <dbl>        <dbl> <chr>                       <dbl>
 1 2020-04-01 firm1 -0.0395         0.961 negative                    0.961
 2 2020-04-02 firm1  0.00598        1.01  positive                    0.966
 3 2020-04-03 firm1  0.0558         1.06  positive                    1.02 
 4 2020-04-06 firm1  0.0419         1.04  positive                    1.06 
 5 2020-04-07 firm1 -0.0202         0.980 negative                    1.04 
 6 2020-04-08 firm1 -0.00229        0.998 negative                    1.04 
 7 2020-04-09 firm1  0.0817         1.08  positive                    1.12 
 8 2020-04-10 firm1  0.0346         1.03  positive                    1.16 
 9 2020-04-13 firm1  0.0326         1.03  positive                    1.20 
10 2020-04-14 firm1 -0.0377         0.962 negative                    1.16 
# ℹ 32 more rows
# ℹ 1 more variable: cumulative_return <dbl>
…
