第2章 財務データの整理と分析 – ラグランジェ・ファイナンス
…
normalized_data_dir <- normalizePath(data_dir, winslash = "/", mustWork = TRUE)
normalized_csv_paths <- normalizePath(csv_paths, winslash = "/", mustWork = FALSE)

csv_catalog <- tibble(
  file_name = basename(csv_paths),
  relative_path = substring(
    normalized_csv_paths,
    first = nchar(normalized_data_dir) + 2
  )
) |>
  arrange(relative_path)

csv_catalog

# A tibble: 27 × 2
   file_name                    relative_path               
   <chr>                        <chr>                       
 1 ch03_daily_stock_return.csv  ch03_daily_stock_return.csv 
 2 ch03_output.csv              ch03_output.csv             
 3 ch04_financial_data.csv      ch04_financial_data.csv     
 4 ch04_output.csv              ch04_output.csv             
 5 ch05_accounting_standard.csv ch05_accounting_standard.csv
 6 ch05_earnings_management.csv ch05_earnings_management.csv
 7 ch05_messy_stock_return.csv  ch05_messy_stock_return.csv 
 8 ch05_output1.csv             ch05_output1.csv            
 9 ch05_output2.csv             ch05_output2.csv            
10 ch05_stock_data.csv          ch05_stock_data.csv         
# ℹ 17 more rows
…
financial_data_path <- financial_data_candidates[1]

financial_data_raw <- readr::read_csv(
  financial_data_path,
  show_col_types = FALSE
)

financial_data_path

[1] "C:/AnalyticFin/Projects/LagrangeFinance/simulation_data/ch04_financial_data.csv"

financial_data_raw

# A tibble: 7,920 × 11
    year firm_ID industry_ID sales    OX    NFE     X     OA     FA    OL     FO
   <dbl>   <dbl>       <dbl> <dbl> <dbl>  <dbl> <dbl>  <dbl>  <dbl> <dbl>  <dbl>
 1  2015       1           1 5261. 437.   NA    287.  13006.  3543. 4373.  2481.
 2  2016       1           1 5949. 564.   50.7  513.  13866.  4642. 4534.  3960.
 3  2017       1           1 6505. 691.   29.5  662.  13953.  7744. 5111.  6159.
 4  2018       1           1 6846. 751.   86.5  665.  18818.  7285. 5137. 10124.
 5  2019       1           1 7572. 959.  298.   660.  18190   9735. 5488. 11362.
 6  2020       1           1 7538. 778.  -65.5  844.  20463. 10274. 5371. 13772.
 7  2015       2           1 3506.  45.8   5.75  40.1  2978.  2258. 1840.  2341.
 8  2016       2           1 3491.  51.2   1.88  49.4  3185.  1882. 1769.  2216.
 9  2017       2           1 3946.  83.4   7.53  75.9  3392.  2425. 1955.  2727.
10  2018       2           1 4139.  93.4   6.82  86.6  3569.  2331. 2022.  2694.
# ℹ 7,910 more rows
…
