第II-3章 OISスワップとマルチカーブ評価 – ラグランジェ・ファイナンス
…
case_evaluation_date <- "2012-12-11"

GaussQuant::set_eval_date_GQL(
  case_evaluation_date
)

case_eonia_quotes <- GaussQuant::ametrano_bianchetti_eonia_quotes_GQL()

GaussQuant::show_tbl_GQH(
  case_eonia_quotes,
  "EONIA market quotes",
  n = 40
)
#> # A tibble: 30 × 9
#>    quote_id  instrument_type rate_pct     rate fixing_days tenor_n tenor_unit
#>    <chr>     <chr>              <dbl>    <dbl>       <int>   <int> <chr>     
#>  1 DEP-ON-0D deposit            0.04   0.0004            0       1 Days      
#>  2 DEP-ON-1D deposit            0.04   0.0004            1       1 Days      
#>  3 DEP-ON-2D deposit            0.04   0.0004            2       1 Days      
#>  4 OIS-1W    spot_ois           0.07   0.0007            2       1 Weeks     
#>  5 OIS-2W    spot_ois           0.069  0.00069           2       2 Weeks     
#>  6 OIS-3W    spot_ois           0.078  0.00078           2       3 Weeks     
#>  7 OIS-1M    spot_ois           0.074  0.00074           2       1 Months    
#>  8 OIS-ECB-1 dated_ois          0.046  0.00046          NA      NA <NA>      
#>  9 OIS-ECB-2 dated_ois          0.016  0.00016          NA      NA <NA>      
#> 10 OIS-ECB-3 dated_ois         -0.007 -0.00007          NA      NA <NA>      
#> # ℹ 20 more rows
#> # ℹ 2 more variables: start_date <chr>, end_date <chr>
…
構築した最終カーブを用いて、各Rate Helperのインプライド・レートを求める。

case_eonia_validation <- case_eonia_benchmark$final_validation

case_eonia_repricing_tbl <- case_eonia_validation$quote_repricing |>
  dplyr::mutate(
    quote_error_bp = 10000 * quote_error
  )

GaussQuant::show_tbl_GQH(
  case_eonia_repricing_tbl,
  "EONIA quote repricing",
  n = 40
)
#> # A tibble: 30 × 10
#>    quote_id  instrument_type market_quote implied_quote quote_error pillar_date
#>    <chr>     <chr>                  <dbl>         <dbl>       <dbl> <date>     
#>  1 DEP-ON-0D deposit              0.0004      0.000400     2.62e-15 2012-12-12 
#>  2 DEP-ON-1D deposit              0.0004      0.000400     2.62e-15 2012-12-13 
#>  3 DEP-ON-2D deposit              0.0004      0.000400     2.62e-15 2012-12-14 
#>  4 OIS-1W    spot_ois             0.0007      0.000700     4.56e-13 2012-12-20 
#>  5 OIS-2W    spot_ois             0.00069     0.000690     1.08e-14 2012-12-27 
#>  6 OIS-3W    spot_ois             0.00078     0.000780    -1.36e-15 2013-01-03 
#>  7 OIS-1M    spot_ois             0.00074     0.000740     1.85e-15 2013-01-14 
#>  8 OIS-ECB-1 dated_ois            0.00046     0.000460     6.52e-12 2013-02-13 
#>  9 OIS-ECB-2 dated_ois            0.00016     0.000160     8.46e-12 2013-03-13 
#> 10 OIS-ECB-3 dated_ois           -0.00007    -0.0000700    9.13e-12 2013-04-10 
#> # ℹ 20 more rows
#> # ℹ 4 more variables: discount_factor <dbl>, zero_rate <dbl>,
#> #   one_day_forward_rate <dbl>, quote_error_bp <dbl>
…
