14 第II-7章 Callable BondとHull–Whiteモデル – ラグランジェ・ファイナンス
…
GaussQuant::show_tbl_GQH(
  short_rate_curve_tbl,
  "Short-rate model zero-rate curves",
  n = 30
)
#> # A tibble: 30 × 4
#>    maturity zero_rate model   scenario
#>       <dbl>     <dbl> <chr>   <chr>   
#>  1     0.25    0.0107 Vasicek r0 = 1% 
#>  2     0.5     0.0114 Vasicek r0 = 1% 
#>  3     0.75    0.0121 Vasicek r0 = 1% 
#>  4     1       0.0127 Vasicek r0 = 1% 
#>  5     1.25    0.0133 Vasicek r0 = 1% 
#>  6     1.5     0.0139 Vasicek r0 = 1% 
#>  7     1.75    0.0144 Vasicek r0 = 1% 
#>  8     2       0.0149 Vasicek r0 = 1% 
#>  9     2.25    0.0154 Vasicek r0 = 1% 
#> 10     2.5     0.0159 Vasicek r0 = 1% 
#> # ℹ 20 more rows
…
