第II-8章 信用リスクとCDS – ラグランジェ・ファイナンス
…
GaussQuant::show_tbl_GQH(
  flat_probability_tbl,
  "Flat-hazard probability curve",
  n = 30
)
#> # A tibble: 21 × 3
#>     time survival_probability cumulative_default_probability
#>    <dbl>                <dbl>                          <dbl>
#>  1  0                   1                            0      
#>  2  0.25                0.995                        0.00540
#>  3  0.5                 0.989                        0.0108 
#>  4  0.75                0.984                        0.0161 
#>  5  1                   0.979                        0.0214 
#>  6  1.25                0.973                        0.0267 
#>  7  1.5                 0.968                        0.0320 
#>  8  1.75                0.963                        0.0372 
#>  9  2                   0.958                        0.0424 
#> 10  2.25                0.952                        0.0476 
#> # ℹ 11 more rows
…
GaussQuant::show_tbl_GQH(
  GaussQuant::schedule_table_GQL(
    cds_schedule_isda
  ),
  "CDS schedule: 5Y CDS2015 example",
  n = 30
)
#> # A tibble: 21 × 2
#>    period schedule_date
#>     <int> <date>       
#>  1      1 2022-06-20   
#>  2      2 2022-09-20   
#>  3      3 2022-12-20   
#>  4      4 2023-03-20   
#>  5      5 2023-06-20   
#>  6      6 2023-09-20   
#>  7      7 2023-12-20   
#>  8      8 2024-03-20   
#>  9      9 2024-06-20   
#> 10     10 2024-09-20   
#> # ℹ 11 more rows
…
GaussQuant::show_tbl_GQH(
  cds_cashflow_isda_tbl,
  "CDS cash-flow table: CDS2015 example",
  n = 30
)
#> # A tibble: 21 × 13
#>    payment_date coupon_rate accrual_start accrual_end accrual_days
#>    <chr>              <dbl> <chr>         <chr>              <dbl>
#>  1 2022-08-19         NA    <NA>          2022-08-19            NA
#>  2 2022-09-20          0.01 2022-06-20    2022-09-20            92
#>  3 2022-12-20          0.01 2022-09-20    2022-12-20            91
#>  4 2023-03-20          0.01 2022-12-20    2023-03-20            90
#>  5 2023-06-20          0.01 2023-03-20    2023-06-20            92
#>  6 2023-09-20          0.01 2023-06-20    2023-09-20            92
#>  7 2023-12-20          0.01 2023-09-20    2023-12-20            91
#>  8 2024-03-20          0.01 2023-12-20    2024-03-20            91
#>  9 2024-06-20          0.01 2024-03-20    2024-06-20            92
#> 10 2024-09-20          0.01 2024-06-20    2024-09-20            92
#> # ℹ 11 more rows
#> # ℹ 8 more variables: accrual_year_fraction_365 <dbl>, coupon_amount <dbl>,
#> #   discount_factor <dbl>, survival_probability <dbl>,
#> #   default_probability <dbl>, midpoint_date <chr>,
#> #   midpoint_discount_factor <dbl>, midpoint_survival_probability <dbl>
…
