16 第II-9章 エキゾチック・デリバティブとPRDC – ラグランジェ・ファイナンス
…
GaussQuant::show_tbl_GQH(
  coupon_schedule_tbl,
  "PRDC full coupon schedule",
  n = 60
)
#> # A tibble: 53 × 2
#>    period schedule_date
#>     <int> <date>       
#>  1      1 2015-09-03   
#>  2      2 2016-03-03   
#>  3      3 2016-09-05   
#>  4      4 2017-03-03   
#>  5      5 2017-09-04   
#>  6      6 2018-03-05   
#>  7      7 2018-09-03   
#>  8      8 2019-03-04   
#>  9      9 2019-09-03   
#> 10     10 2020-03-03   
#> # ℹ 43 more rows
…
GaussQuant::show_tbl_GQH(
  fx_payoff_grid_tbl,
  "PRDC coupon payoff table",
  n = 60
)
#> # A tibble: 56 × 3
#>    fx_rate uncapped_coupon coupon_rate
#>      <dbl>           <dbl>       <dbl>
#>  1      70         -0.0288           0
#>  2      72         -0.0268           0
#>  3      74         -0.0248           0
#>  4      76         -0.0227           0
#>  5      78         -0.0207           0
#>  6      80         -0.0187           0
#>  7      82         -0.0166           0
#>  8      84         -0.0146           0
#>  9      86         -0.0126           0
#> 10      88         -0.0105           0
#> # ℹ 46 more rows
…
GaussQuant::show_tbl_GQH(
  time_grid_tbl,
  "PRDC remaining coupon-date time grid",
  n = 60
)
#> # A tibble: 37 × 4
#>    coupon_number coupon_date time_from_valuation time_step
#>            <int> <date>                    <dbl>     <dbl>
#>  1             1 2023-09-04                0.406     0.406
#>  2             2 2024-03-04                0.911     0.506
#>  3             3 2024-09-03                1.42      0.508
#>  4             4 2025-03-03                1.92      0.503
#>  5             5 2025-09-03                2.43      0.511
#>  6             6 2026-03-03                2.94      0.503
#>  7             7 2026-09-03                3.45      0.511
#>  8             8 2027-03-03                3.95      0.503
#>  9             9 2027-09-03                4.46      0.511
#> 10            10 2028-03-03                4.97      0.506
#> # ℹ 27 more rows
…
GaussQuant::show_tbl_GQH(
  sample_fx_path_tbl,
  "Sample PRDC FX and coupon paths",
  n = 40
)
#> # A tibble: 40 × 6
#>    path_id coupon_number coupon_date  time fx_rate coupon_rate
#>      <int>         <int> <date>      <dbl>   <dbl>       <dbl>
#>  1       1             1 2023-09-04  0.406    127.       0.022
#>  2       1             2 2024-03-04  0.911    124.       0.022
#>  3       1             3 2024-09-03  1.42     136.       0.022
#>  4       1             4 2025-03-03  1.92     135.       0.022
#>  5       1             5 2025-09-03  2.43     135.       0.022
#>  6       1             6 2026-03-03  2.94     150.       0.022
#>  7       1             7 2026-09-03  3.45     154.       0.022
#>  8       1             8 2027-03-03  3.95     139.       0.022
#>  9       1             9 2027-09-03  4.46     130.       0.022
#> 10       1            10 2028-03-03  4.97     125.       0.022
#> # ℹ 30 more rows
…
GaussQuant::show_tbl_GQH(
  expected_coupon_display_tbl,
  "PRDC expected FX and coupon rates",
  n = 60
)
#> # A tibble: 37 × 7
#>    coupon_number coupon_date  time expected_fx expected_coupon_rate
#>            <int> <date>      <dbl>       <dbl>                <dbl>
#>  1             1 2023-09-04  0.406        132.               0.0218
#>  2             2 2024-03-04  0.911        131.               0.0208
#>  3             3 2024-09-03  1.42         130.               0.0196
#>  4             4 2025-03-03  1.92         128.               0.0185
#>  5             5 2025-09-03  2.43         127.               0.0176
#>  6             6 2026-03-03  2.94         126.               0.0168
#>  7             7 2026-09-03  3.45         124.               0.0161
#>  8             8 2027-03-03  3.95         123.               0.0153
#>  9             9 2027-09-03  4.46         122.               0.0147
#> 10            10 2028-03-03  4.97         121.               0.0140
#> # ℹ 27 more rows
#> # ℹ 2 more variables: is_intro_coupon <lgl>, final_coupon_rate <dbl>

GaussQuant::show_tbl_GQH(
  prdc_cashflow_display_tbl,
  "PRDC expected cash-flow table",
  n = 60
)
#> # A tibble: 37 × 10
#>    coupon_number accrual_start accrual_end final_coupon_rate accrual_fraction
#>            <int> <date>        <date>                  <dbl>            <dbl>
#>  1             1 2023-03-03    2023-09-04             0.0218            0.514
#>  2             2 2023-09-04    2024-03-04             0.0208            0.506
#>  3             3 2024-03-04    2024-09-03             0.0196            0.508
#>  4             4 2024-09-03    2025-03-03             0.0185            0.503
#>  5             5 2025-03-03    2025-09-03             0.0176            0.511
#>  6             6 2025-09-03    2026-03-03             0.0168            0.503
#>  7             7 2026-03-03    2026-09-03             0.0161            0.511
#>  8             8 2026-09-03    2027-03-03             0.0153            0.503
#>  9             9 2027-03-03    2027-09-03             0.0147            0.511
#> 10            10 2027-09-03    2028-03-03             0.0140            0.506
#> # ℹ 27 more rows
#> # ℹ 5 more variables: coupon_amount <dbl>, redemption_amount <dbl>,
#> #   total_amount <dbl>, discount_factor <dbl>, total_present_value <dbl>
…
GaussQuant::show_tbl_GQH(
  coupon_cap_floor_probability_tbl,
  "PRDC coupon floor and cap probabilities",
  n = 60
)
#> # A tibble: 37 × 6
#>    coupon_number floor_probability cap_probability interior_probability
#>            <int>             <dbl>           <dbl>                <dbl>
#>  1             1          0                  0.931               0.0687
#>  2             2          0.000667           0.803               0.197 
#>  3             3          0.0137             0.722               0.265 
#>  4             4          0.0347             0.653               0.312 
#>  5             5          0.0633             0.615               0.322 
#>  6             6          0.0917             0.581               0.327 
#>  7             7          0.118              0.546               0.336 
#>  8             8          0.150              0.523               0.327 
#>  9             9          0.175              0.493               0.332 
#> 10            10          0.205              0.465               0.330 
#> # ℹ 27 more rows
#> # ℹ 2 more variables: coupon_date <date>, time <dbl>
…
